<?xml version="1.0" encoding="UTF-8"?>
<svg width="24px" height="24px" viewBox="0 0 24 24" version="1.1" xmlns="http://www.w3.org/2000/svg" xmlns:xlink="http://www.w3.org/1999/xlink">
    <!-- Generator: Sketch 48.1 (47250) - http://www.bohemiancoding.com/sketch -->
    <title>icon/20px/component</title>
    <desc>Created with Sketch.</desc>
    <defs>
        <path d="M19,7.5 C20.1045695,7.5 21,8.3954305 21,9.5 L21,17.5 C21,18.6045695 20.1045695,19.5 19,19.5 L5,19.5 C3.8954305,19.5 3,18.6045695 3,17.5 L3,9.5 C3,8.3954305 3.8954305,7.5 5,7.5 L5,6.5 C5,5.3954305 5.8954305,4.5 7,4.5 L9,4.5 C10.1045695,4.5 11,5.3954305 11,6.5 L11,7.5 L13,7.5 L13,6.5 C13,5.3954305 13.8954305,4.5 15,4.5 L17,4.5 C18.1045695,4.5 19,5.3954305 19,6.5 L19,7.5 Z M5,9.5 L5,17.4961025 L19,17.4961025 L19,9.5 L5,9.5 Z M7,6.1645822 L7,7.5 L9,7.5 L9,6.1645822 L7,6.1645822 Z M15,6.1645822 L15,7.5 L17,7.5 L17,6.1645822 L15,6.1645822 Z" id="path-1"></path>
    </defs>
    <g id="Symbols" stroke="none" stroke-width="1" fill="none" fill-rule="evenodd">
        <g id="icon/20px/component">
            <mask id="mask-2" fill="white">
                <use xlink:href="#path-1"></use>
            </mask>
            <use id="Combined-Shape" fill="#3F4F71" xlink:href="#path-1"></use>
        </g>
    </g>
</svg>