<?xml version="1.0" encoding="UTF-8"?>
<svg width="24px" height="24px" viewBox="0 0 24 24" version="1.1" xmlns="http://www.w3.org/2000/svg" xmlns:xlink="http://www.w3.org/1999/xlink">
    <!-- Generator: Sketch 48.1 (47250) - http://www.bohemiancoding.com/sketch -->
    <title>bamboo/20px/plan-dsaibled</title>
    <desc>Created with Sketch.</desc>
    <defs>
        <path d="M15.72,11.996 C15.72,12.682 15.16,13.237 14.491,13.237 L9.503,13.237 C8.824,13.237 8.273,12.686 8.273,11.996 C8.273,11.311 8.833,10.755 9.503,10.755 L14.491,10.755 C15.169,10.755 15.72,11.306 15.72,11.996 M12,18 C8.692,18 6,15.309 6,12 C6,8.691 8.692,6 12,6 C15.309,6 18,8.691 18,12 C18,15.309 15.309,18 12,18 M12,4 C7.582,4 4,7.581 4,12 C4,16.418 7.582,20 12,20 C16.419,20 20,16.418 20,12 C20,7.581 16.419,4 12,4" id="path-1"></path>
    </defs>
    <g id="Symbols" stroke="none" stroke-width="1" fill="none" fill-rule="evenodd">
        <g id="bamboo/20px/plan-dsaibled">
            <mask id="mask-2" fill="white">
                <use xlink:href="#path-1"></use>
            </mask>
            <use id="plan-dsaibled" fill="#172B4D" xlink:href="#path-1"></use>
        </g>
    </g>
</svg>