<?xml version="1.0" encoding="UTF-8"?>
<svg width="16px" height="16px" viewBox="0 0 16 16" version="1.1" xmlns="http://www.w3.org/2000/svg" xmlns:xlink="http://www.w3.org/1999/xlink">
    <!-- Generator: Sketch 48.2 (47327) - http://www.bohemiancoding.com/sketch -->
    <title>icon/16px/attachment-16px</title>
    <desc>Created with Sketch.</desc>
    <defs></defs>
    <g id="Symbols" stroke="none" stroke-width="1" fill="none" fill-rule="evenodd">
        <g id="icon/16px/attachment" fill="#42526E">
            <path d="M8.09506622,11.9764764 C7.07489798,12.9733574 5.41824228,12.9737669 4.40061436,11.9793682 C3.38336784,10.9853422 3.38512864,9.36444624 4.40168679,8.37109291 L9.16699598,3.71456077 C9.76507293,3.130136 10.7240454,3.12834135 11.3221628,3.71280559 C11.9175066,4.29455961 11.9185632,5.23423507 11.3245805,5.81465895 L6.8557382,10.1814917 C6.6885848,10.3448295 6.41871042,10.3441701 6.24636059,10.1757545 C6.07381909,10.0071516 6.07308967,9.74386568 6.24636059,9.57454998 L10.3992896,5.51641925 C10.654134,5.26739217 10.654134,4.8636395 10.3992896,4.61461242 C10.1444453,4.36558534 9.7312609,4.36558534 9.47641648,4.61461242 L5.32348748,8.67274312 C4.6394059,9.34120928 4.64237244,10.4119941 5.32348748,11.0775614 C6.0044959,11.7430245 7.10073331,11.7457027 7.77861132,11.0832985 L12.2474536,6.71646578 C13.3515796,5.6375436 13.349615,3.89036387 12.2450359,2.81099876 C11.1364368,1.72770549 9.35109895,1.73104662 8.24412285,2.81275393 L3.47881367,7.4692861 C1.95300485,8.96026549 1.95036686,11.3886658 3.47774124,12.881175 C5.00516245,14.37373 7.48818684,14.3731162 9.01793933,12.8782832 L13.4755334,8.52244202 C13.7303778,8.27341494 13.7303778,7.86966226 13.4755334,7.62063518 C13.220689,7.37160811 12.8075046,7.37160811 12.5526602,7.62063518 L8.09506622,11.9764764 Z" id="attachment"></path>
        </g>
    </g>
</svg>