<?xml version="1.0" encoding="UTF-8"?>
<svg width="16px" height="16px" viewBox="0 0 16 16" version="1.1" xmlns="http://www.w3.org/2000/svg" xmlns:xlink="http://www.w3.org/1999/xlink">
    <!-- Generator: Sketch 48.2 (47327) - http://www.bohemiancoding.com/sketch -->
    <title>confluence/16px/bold</title>
    <desc>Created with Sketch.</desc>
    <defs></defs>
    <g id="Editor-icons---v2" stroke="none" stroke-width="1" fill="none" fill-rule="evenodd">
        <g id="confluence/16px/bold" fill="#42526E">
            <path d="M3,2.50034732 C3,2.22401312 3.22149727,2 3.49722731,2 L8.83193277,2 C9.9075684,2 12,2.5 12,5 C12,7 11,7.5 11,7.5 C11,7.5 13,8 13,10.5 C13,11 13,14 9,14 L3.49100518,14 C3.21983051,14 3,13.7709994 3,13.4996527 L3,2.50034732 Z M5,12 L8.5,12 C9.5,12 10.5,11.75 10.5,10.5 C10.5,9.25 9.39611816,9 8.5,9 L5,9 L5,12 Z M5,7.02521014 L8,7.02521014 C8.5042042,7.02521014 10,7.02521014 10,5.5 C10,3.97478986 8,4 8,4 L5,3.99997418 L5,7.02521014 Z" id="Combined-Shape"></path>
        </g>
    </g>
</svg>