<?xml version="1.0" encoding="UTF-8"?>
<svg width="16px" height="16px" viewBox="0 0 16 16" version="1.1" xmlns="http://www.w3.org/2000/svg" xmlns:xlink="http://www.w3.org/1999/xlink">
    <!-- Generator: Sketch 48.2 (47327) - http://www.bohemiancoding.com/sketch -->
    <title>icon/16px/chevron-up-16px</title>
    <desc>Created with Sketch.</desc>
    <defs>
        <path d="M7.221,5.822 L4.291,8.777 C4.102,8.968 4.005,9.217 4,9.467 L4,9.506 C4.005,9.756 4.102,10.005 4.291,10.196 C4.68,10.588 5.31,10.588 5.698,10.196 L7.995,7.879 L10.302,10.206 C10.491,10.397 10.738,10.495 10.986,10.5 L11.024,10.5 C11.272,10.495 11.519,10.397 11.709,10.206 C11.898,10.015 11.995,9.766 12,9.516 L12,9.478 C11.995,9.228 11.898,8.979 11.709,8.788 L8.769,5.822 C8.55,5.608 8.27,5.5 7.991,5.5 C7.712,5.5 7.434,5.608 7.221,5.822 Z" id="path-1"></path>
    </defs>
    <g id="Symbols" stroke="none" stroke-width="1" fill="none" fill-rule="evenodd">
        <g id="icon/16px/chevron-up">
            <mask id="mask-2" fill="white">
                <use xlink:href="#path-1"></use>
            </mask>
            <use id="chevron-up-small" fill="#42526E" xlink:href="#path-1"></use>
        </g>
    </g>
</svg>