<?xml version="1.0" encoding="UTF-8"?>
<svg width="16px" height="16px" viewBox="0 0 16 16" version="1.1" xmlns="http://www.w3.org/2000/svg" xmlns:xlink="http://www.w3.org/1999/xlink">
    <!-- Generator: Sketch 48.2 (47327) - http://www.bohemiancoding.com/sketch -->
    <title>icon/16px/detail-view-16px</title>
    <desc>Created with Sketch.</desc>
    <defs>
        <path d="M2,12.5 C2,13.052 2.448,13.5 3,13.5 L8,13.5 L8,11.5 L2,11.5 L2,12.5 Z M2,10.5 L8,10.5 L8,8.5 L2,8.5 L2,10.5 Z M2,7.5 L8,7.5 L8,5.5 L2,5.5 L2,7.5 Z M8,2.5 L8,4.5 L2,4.5 L2,3.5 C2,2.948 2.448,2.5 3,2.5 L8,2.5 Z" id="path-1"></path>
    </defs>
    <g id="Symbols" stroke="none" stroke-width="1" fill="none" fill-rule="evenodd">
        <g id="icon/16px/detail-view">
            <mask id="mask-2" fill="white">
                <use xlink:href="#path-1"></use>
            </mask>
            <use id="detail-view-small" fill="#3F4F71" xlink:href="#path-1"></use>
        </g>
    </g>
</svg>