<?xml version="1.0" encoding="UTF-8"?>
<svg width="16px" height="16px" viewBox="0 0 16 16" version="1.1" xmlns="http://www.w3.org/2000/svg" xmlns:xlink="http://www.w3.org/1999/xlink">
    <!-- Generator: Sketch 48.2 (47327) - http://www.bohemiancoding.com/sketch -->
    <title>icon/16px/discover-filled-16px</title>
    <desc>Created with Sketch.</desc>
    <defs>
        <path d="M8,15 C4.13400675,15 1,11.8659932 1,8 C1,4.13400675 4.13400675,1 8,1 C11.8659932,1 15,4.13400675 15,8 C15,11.8659932 11.8659932,15 8,15 Z M7.23619199,6.56890306 C6.99210196,6.69298089 6.69182468,6.99497026 6.56945503,7.23564422 L5.07489417,10.1751141 C4.64676643,11.0185822 4.98278701,11.3528992 5.82539698,10.9247688 L8.76410694,9.43093985 C9.00819697,9.30686202 9.30842345,9.00487265 9.4307324,8.76419869 L10.9245519,5.82472882 C11.3535325,4.98211352 11.0175119,4.64694367 10.1749019,5.07507411 L7.23619199,6.56890306 Z M8,8.77777778 C7.57044519,8.77777778 7.22222222,8.42955481 7.22222222,8 C7.22222222,7.57044519 7.57044519,7.22222222 8,7.22222222 C8.42955481,7.22222222 8.77777778,7.57044519 8.77777778,8 C8.77777778,8.42955481 8.42955481,8.77777778 8,8.77777778 Z" id="path-1"></path>
    </defs>
    <g id="Symbols" stroke="none" stroke-width="1" fill="none" fill-rule="evenodd">
        <g id="icon/16px/discover-filled">
            <mask id="mask-2" fill="white">
                <use xlink:href="#path-1"></use>
            </mask>
            <use id="Combined-Shape" fill="#42526E" xlink:href="#path-1"></use>
        </g>
    </g>
</svg>