<?xml version="1.0" encoding="UTF-8"?>
<svg width="16px" height="16px" viewBox="0 0 16 16" version="1.1" xmlns="http://www.w3.org/2000/svg" xmlns:xlink="http://www.w3.org/1999/xlink">
    <!-- Generator: Sketch 48.2 (47327) - http://www.bohemiancoding.com/sketch -->
    <title>icon/16px/file-16px</title>
    <desc>Created with Sketch.</desc>
    <defs>
        <path d="M14,6 L14,5.829 C14,5.298 13.789,4.789 13.414,4.414 L10.586,1.586 C10.211,1.211 9.702,1 9.171,1 L4,1 C2.9,1 2,1.9 2,3 L2,13 C2,14.1 2.9,15 4,15 L12,15 C13.1,15 14,14.1 14,13 L14,7 L12,7 L12,13 L4,13 L4,3 L9,3 L9,5 C9,5.55 9.45,6 10,6 L14,6 Z M11,10 C11,10.552 10.552,11 10,11 L6,11 C5.448,11 5,10.552 5,10 C5,9.448 5.448,9 6,9 L10,9 C10.552,9 11,9.448 11,10 Z" id="path-1"></path>
    </defs>
    <g id="Symbols" stroke="none" stroke-width="1" fill="none" fill-rule="evenodd">
        <g id="icon/16px/file">
            <mask id="mask-2" fill="white">
                <use xlink:href="#path-1"></use>
            </mask>
            <use id="file-small" fill="#42526E" xlink:href="#path-1"></use>
        </g>
    </g>
</svg>