<?xml version="1.0" encoding="UTF-8"?>
<svg width="16px" height="16px" viewBox="0 0 16 16" version="1.1" xmlns="http://www.w3.org/2000/svg" xmlns:xlink="http://www.w3.org/1999/xlink">
    <!-- Generator: Sketch 48.2 (47327) - http://www.bohemiancoding.com/sketch -->
    <title>icon/16px/followers-16px</title>
    <desc>Created with Sketch.</desc>
    <defs>
        <path d="M2.04129894,9.99025616 C2.04129894,8.89106804 2.93884809,8 4.04246162,8 L9.05712783,8 C10.1623395,8 11.0582905,8.89587077 11.0582905,9.99884704 L11.0582905,12.8437022 C11.0582905,15.4024242 2.04129894,15.4024242 2.04129894,12.8437022 C2.04129894,15.4024242 2.04129894,9.99025616 2.04129894,9.99025616 Z M6.54979473,7.24858404 C4.88981241,7.24858404 3.54413087,5.90290249 3.54413087,4.24292018 C3.54413087,2.58293787 4.88981241,1.23725632 6.54979473,1.23725632 C8.20977704,1.23725632 9.55545858,2.58293787 9.55545858,4.24292018 C9.55545858,5.90290249 8.20977704,7.24858404 6.54979473,7.24858404 Z M11.2783752,5.96583675 L12.2498758,4.99433614 L11.2783752,4.02283554 C10.984929,3.72938935 10.984929,3.25361908 11.2783752,2.96017289 C11.5718213,2.6667267 12.0475916,2.6667267 12.3410378,2.96017289 L13.6637495,4.28288455 C14.057363,4.67649813 14.0566733,5.31286387 13.6637495,5.70578774 L12.3410378,7.0284994 C12.0475916,7.32194558 11.5718213,7.32194558 11.2783752,7.0284994 C10.984929,6.73505321 10.984929,6.25928293 11.2783752,5.96583675 Z" id="path-1"></path>
    </defs>
    <g id="Symbols" stroke="none" stroke-width="1" fill="none" fill-rule="evenodd">
        <g id="icon/16px/followers">
            <mask id="mask-2" fill="white">
                <use xlink:href="#path-1"></use>
            </mask>
            <use id="Combined-Shape" fill="#41516F" xlink:href="#path-1"></use>
        </g>
    </g>
</svg>