<?xml version="1.0" encoding="UTF-8"?>
<svg width="16px" height="16px" viewBox="0 0 16 16" version="1.1" xmlns="http://www.w3.org/2000/svg" xmlns:xlink="http://www.w3.org/1999/xlink">
    <!-- Generator: Sketch 48.2 (47327) - http://www.bohemiancoding.com/sketch -->
    <title>icon/16px/invite-team-16px</title>
    <desc>Created with Sketch.</desc>
    <defs>
        <path d="M12.9450021,4.95692179 L13.7057716,4.95692179 C14.1259331,4.95692179 14.4665412,5.29752992 14.4665412,5.71769134 C14.4665412,6.13785277 14.1259331,6.4784609 13.7057716,6.4784609 L12.9450021,6.4784609 L12.9450021,7.24624629 C12.9450021,7.66253297 12.6073232,8 12.1842325,8 C11.7640711,8 11.423463,7.65691181 11.423463,7.24624629 L11.423463,6.4784609 L10.6626934,6.4784609 C10.242532,6.4784609 9.90192388,6.13785277 9.90192388,5.71769134 C9.90192388,5.29752992 10.242532,4.95692179 10.6626934,4.95692179 L11.423463,4.95692179 L11.423463,4.1891364 C11.423463,3.77284972 11.7611418,3.43538269 12.1842325,3.43538269 C12.604394,3.43538269 12.9450021,3.77847087 12.9450021,4.1891364 L12.9450021,4.95692179 Z M6.09807612,7.23923045 C4.41743043,7.23923045 3.05499791,5.87679793 3.05499791,4.19615224 C3.05499791,2.51550655 4.41743043,1.15307403 6.09807612,1.15307403 C7.77872181,1.15307403 9.14115433,2.51550655 9.14115433,4.19615224 C9.14115433,5.87679793 7.77872181,7.23923045 6.09807612,7.23923045 Z M1.53345881,9.97880096 C1.53345881,8.88593937 2.42543033,8 3.53690809,8 L8.65924415,8 C9.76571864,8 10.6626934,8.88987504 10.6626934,9.99996797 L10.6626934,12.9039964 C10.6626934,15.4945692 1.53345881,15.4945692 1.53345881,12.9039964 C1.53345881,15.4945692 1.53345881,9.97880096 1.53345881,9.97880096 Z" id="path-1"></path>
    </defs>
    <g id="Symbols" stroke="none" stroke-width="1" fill="none" fill-rule="evenodd">
        <g id="icon/16px/invite-team">
            <mask id="mask-2" fill="white">
                <use xlink:href="#path-1"></use>
            </mask>
            <use id="Mask" fill="#3E4E72" xlink:href="#path-1"></use>
        </g>
    </g>
</svg>