<?xml version="1.0" encoding="UTF-8"?>
<svg width="16px" height="16px" viewBox="0 0 16 16" version="1.1" xmlns="http://www.w3.org/2000/svg" xmlns:xlink="http://www.w3.org/1999/xlink">
    <!-- Generator: Sketch 48.2 (47327) - http://www.bohemiancoding.com/sketch -->
    <title>Jira manage solid 16</title>
    <desc>Created with Sketch.</desc>
    <defs></defs>
    <g id="Symbols" stroke="none" stroke-width="1" fill="none" fill-rule="evenodd">
        <g id="Jira-manage-solid-16" fill="#0044A9" fill-rule="nonzero">
            <path d="M15.2911111,0 C15.6593009,2.2545125e-17 15.9577778,0.298476833 15.9577778,0.666666667 L15.9577778,8.30222222 C14.0436986,8.30099643 12.4923369,6.74963472 12.4911111,4.83555556 L12.4911111,3.46888889 L11.0755556,3.46888889 C10.155549,3.46888889 9.27322356,3.10341772 8.6226807,2.45287486 C7.97213784,1.802332 7.60666667,0.920006535 7.60666667,0 L15.2911111,0 Z M11.4888889,3.82888889 C11.8570787,3.82888889 12.1555556,4.12736572 12.1555556,4.49555556 L12.1555556,12.1311111 C10.2414754,12.1311127 8.68911904,10.5807452 8.68666667,8.66666667 L8.68666667,7.29555556 L7.27111111,7.29555556 C5.35703195,7.29432976 3.80567024,5.74296805 3.80444444,3.82888889 L11.4888889,3.82888889 Z M7.68444444,7.65555556 C8.05263428,7.65555556 8.35111111,7.95403239 8.35111111,8.32222222 L8.35111111,15.9577778 C6.43876784,15.9541029 4.89011044,14.4034575 4.88888889,12.4911111 L4.88888889,11.1244444 L3.46888889,11.1244444 C1.55307446,11.1244444 2.34619601e-16,9.57136999 0,7.65555556 L7.68444444,7.65555556 Z" id="Combined-Shape"></path>
        </g>
    </g>
</svg>