<?xml version="1.0" encoding="UTF-8"?>
<svg width="16px" height="16px" viewBox="0 0 16 16" version="1.1" xmlns="http://www.w3.org/2000/svg" xmlns:xlink="http://www.w3.org/1999/xlink">
    <!-- Generator: Sketch 48.2 (47327) - http://www.bohemiancoding.com/sketch -->
    <title>icon/16px/page-filled-16px</title>
    <desc>Created with Sketch.</desc>
    <defs>
        <path d="M3.21500015,3.16383992 C3.21500015,2.05714961 4.11532249,1.15999985 5.22118569,1.15999985 L10.7788143,1.15999985 C11.8868,1.15999985 12.7849998,2.05758288 12.7849998,3.16383992 L12.7849998,12.8361601 C12.7849998,13.9428504 11.8846775,14.8400002 10.7788143,14.8400002 L5.22118569,14.8400002 C4.11320001,14.8400002 3.21500015,13.9424171 3.21500015,12.8361601 L3.21500015,3.16383992 Z M5.26571437,4.57999992 C5.26571437,4.96039639 5.57580121,5.26399994 5.9583127,5.26399994 L10.0416873,5.26399994 C10.424603,5.26399994 10.7342856,4.9577627 10.7342856,4.57999992 C10.7342856,4.19960345 10.4241988,3.89599991 10.0416873,3.89599991 L5.9583127,3.89599991 C5.57539704,3.89599991 5.26571437,4.20223715 5.26571437,4.57999992 Z M5.26571437,6.63199997 C5.26571437,7.01239644 5.57580121,7.31599998 5.9583127,7.31599998 L10.0416873,7.31599998 C10.424603,7.31599998 10.7342856,7.00976275 10.7342856,6.63199997 C10.7342856,6.2516035 10.4241988,5.94799995 10.0416873,5.94799995 L5.9583127,5.94799995 C5.57539704,5.94799995 5.26571437,6.25423719 5.26571437,6.63199997 Z M5.26571437,8.68400002 C5.26571437,9.06439649 5.57462702,9.36800003 5.95569009,9.36800003 L7.31002428,9.36800003 C7.68634267,9.36800003 8,9.06176279 8,8.68400002 C8,8.30360355 7.69108735,8 7.31002428,8 L5.95569009,8 C5.5793717,8 5.26571437,8.30623724 5.26571437,8.68400002 Z" id="path-1"></path>
    </defs>
    <g id="Symbols" stroke="none" stroke-width="1" fill="none" fill-rule="evenodd">
        <g id="icon/16px/page-filled">
            <mask id="mask-2" fill="white">
                <use xlink:href="#path-1"></use>
            </mask>
            <use id="Combined-Shape" fill="#42526E" xlink:href="#path-1"></use>
        </g>
    </g>
</svg>