<?xml version="1.0" encoding="UTF-8"?>
<svg width="16px" height="16px" viewBox="0 0 16 16" version="1.1" xmlns="http://www.w3.org/2000/svg" xmlns:xlink="http://www.w3.org/1999/xlink">
    <!-- Generator: Sketch 48.2 (47327) - http://www.bohemiancoding.com/sketch -->
    <title>icon/16px/radio-16px</title>
    <desc>Created with Sketch.</desc>
    <defs>
        <path d="M8,14.7355455 C4.28006092,14.7355455 1.26445446,11.7199391 1.26445446,8 C1.26445446,4.28006092 4.28006092,1.26445446 8,1.26445446 C11.7199391,1.26445446 14.7355455,4.28006092 14.7355455,8 C14.7355455,11.7199391 11.7199391,14.7355455 8,14.7355455 Z M8,10.2451818 C9.23997969,10.2451818 10.2451818,9.23997969 10.2451818,8 C10.2451818,6.76002031 9.23997969,5.75481815 8,5.75481815 C6.76002031,5.75481815 5.75481815,6.76002031 5.75481815,8 C5.75481815,9.23997969 6.76002031,10.2451818 8,10.2451818 Z" id="path-1"></path>
    </defs>
    <g id="Symbols" stroke="none" stroke-width="1" fill="none" fill-rule="evenodd">
        <g id="icon/16px/radio">
            <mask id="mask-2" fill="white">
                <use xlink:href="#path-1"></use>
            </mask>
            <use id="Combined-Shape" fill="#42526E" xlink:href="#path-1"></use>
        </g>
    </g>
</svg>
